…
`load_tntp()` loads [Transportation
Networks](https://github.com/bstabler/TransportationNetworks) data
([TNTP](https://www.bgu.ac.il/~bargera/tntp/) format).

`Traffic()` creates traffic data from trip and network data frames.

``` julia
using TrafficAssig

traffic = load_tntp("Anaheim")
```

    Number of nodes: 416
    Trips:
    1406×3 DataFrame
      Row │ orig   dest   trips
          │ Int64  Int64  Float64
    ──────┼───────────────────────
        1 │     1      2   1365.9
        2 │     1      3    407.4
        3 │     1      4    861.4
        4 │     1      5    354.4
        5 │     1      6    545.1
        6 │     1      7    431.5
        7 │     1      8      1.0
        8 │     1      9     56.8
      ⋮   │   ⋮      ⋮       ⋮
     1400 │    38     31     84.2
     1401 │    38     32     25.1
     1402 │    38     33     24.6
     1403 │    38     34     31.1
     1404 │    38     35     21.4
     1405 │    38     36     19.1
     1406 │    38     37      2.3
                 1391 rows omitted

    Network:
    914×8 DataFrame
     Row │ from   to     free_flow_time  capacity  alpha    beta     toll     leng ⋯
         │ Int64  Int64  Float64         Float64   Float64  Float64  Float64  Floa ⋯
    ─────┼──────────────────────────────────────────────────────────────────────────
       1 │     1    117         1.09046    9000.0     0.15      4.0      0.0   528 ⋯
       2 │     2     87         1.09046    9000.0     0.15      4.0      0.0   528
       3 │     3     74         1.09046    9000.0     0.15      4.0      0.0   528
       4 │     4    233         1.09046    9000.0     0.15      4.0      0.0   528
       5 │     5    165         1.09046    9000.0     0.15      4.0      0.0   528 ⋯
       6 │     6    213         1.09046    9000.0     0.15      4.0      0.0   528
       7 │     7    253         1.09046    9000.0     0.15      4.0      0.0   528
       8 │     8    411         1.0        5400.0     0.15      4.0      0.0   264
      ⋮  │   ⋮      ⋮          ⋮            ⋮         ⋮        ⋮        ⋮        ⋮ ⋱
     908 │   413    404         2.0        5400.0     0.15      4.0      0.0   528 ⋯
     909 │   414     22         1.0        5400.0     0.15      4.0      0.0   264
     910 │   414    405         2.0        5400.0     0.15      4.0      0.0   528
     911 │   415     22         1.0        5400.0     0.15      4.0      0.0   264
     912 │   415    406         2.0        5400.0     0.15      4.0      0.0   528 ⋯
     913 │   416     23         1.0        5400.0     0.15      4.0      0.0   264
     914 │   416    407         2.0        5400.0     0.15      4.0      0.0   528
                                                       1 column and 899 rows omitted
<!-- 

::: {.cell}

:::

::: {.cell}

```{.julia .cell-code}
trips
```

::: {.cell-output .cell-output-stdout}
```
576×3 DataFrame
 Row │ orig   dest   trips
     │ Int64  Int64  Float64
─────┼───────────────────────
   1 │     1      1      0.0
   2 │     1      2    100.0
   3 │     1      3    100.0
   4 │     1      4    500.0
   5 │     1      5    200.0
   6 │     1      6    300.0
   7 │     1      7    500.0
   8 │     1      8    800.0
  ⋮  │   ⋮      ⋮       ⋮
 570 │    24     18      0.0
 571 │    24     19    100.0
 572 │    24     20    400.0
 573 │    24     21    500.0
 574 │    24     22   1100.0
 575 │    24     23    700.0
 576 │    24     24      0.0
             561 rows omitted
```
:::

```{.julia .cell-code}
network
```

::: {.cell-output .cell-output-stdout}
```
76×8 DataFrame
 Row │ from   to     free_flow_time  capacity  alpha    beta     toll     leng ⋯
     │ Int64  Int64  Float64         Float64   Float64  Float64  Float64  Floa ⋯
─────┼──────────────────────────────────────────────────────────────────────────
   1 │     1      2             6.0  25900.2      0.15      4.0      0.0       ⋯
   2 │     1      3             4.0  23403.5      0.15      4.0      0.0
   3 │     2      1             6.0  25900.2      0.15      4.0      0.0
   4 │     2      6             5.0   4958.18     0.15      4.0      0.0
   5 │     3      1             4.0  23403.5      0.15      4.0      0.0       ⋯
   6 │     3      4             4.0  17110.5      0.15      4.0      0.0
   7 │     3     12             4.0  23403.5      0.15      4.0      0.0
   8 │     4      3             4.0  17110.5      0.15      4.0      0.0
  ⋮  │   ⋮      ⋮          ⋮            ⋮         ⋮        ⋮        ⋮        ⋮ ⋱
  70 │    22     23             4.0   5000.0      0.15      4.0      0.0       ⋯
  71 │    23     14             4.0   4924.79     0.15      4.0      0.0
  72 │    23     22             4.0   5000.0      0.15      4.0      0.0
  73 │    23     24             2.0   5078.51     0.15      4.0      0.0
  74 │    24     13             4.0   5091.26     0.15      4.0      0.0       ⋯
  75 │    24     21             3.0   4885.36     0.15      4.0      0.0
  76 │    24     23             2.0   5078.51     0.15      4.0      0.0
                                                    1 column and 61 rows omitted
```
:::

```{.julia .cell-code}

Traffic(trips, network)
```

::: {.cell-output .cell-output-stdout}
```
Number of nodes: 24
Trips:
576×3 DataFrame
 Row │ orig   dest   trips
     │ Int64  Int64  Float64
─────┼───────────────────────
   1 │     1      1      0.0
   2 │     1      2    100.0
   3 │     1      3    100.0
   4 │     1      4    500.0
   5 │     1      5    200.0
   6 │     1      6    300.0
   7 │     1      7    500.0
   8 │     1      8    800.0
  ⋮  │   ⋮      ⋮       ⋮
 570 │    24     18      0.0
 571 │    24     19    100.0
 572 │    24     20    400.0
 573 │    24     21    500.0
 574 │    24     22   1100.0
 575 │    24     23    700.0
 576 │    24     24      0.0
             561 rows omitted

Network:
76×8 DataFrame
 Row │ from   to     free_flow_time  capacity  alpha    beta     toll     leng ⋯
     │ Int64  Int64  Float64         Float64   Float64  Float64  Float64  Floa ⋯
─────┼──────────────────────────────────────────────────────────────────────────
   1 │     1      2             6.0  25900.2      0.15      4.0      0.0       ⋯
   2 │     1      3             4.0  23403.5      0.15      4.0      0.0
   3 │     2      1             6.0  25900.2      0.15      4.0      0.0
   4 │     2      6             5.0   4958.18     0.15      4.0      0.0
   5 │     3      1             4.0  23403.5      0.15      4.0      0.0       ⋯
   6 │     3      4             4.0  17110.5      0.15      4.0      0.0
   7 │     3     12             4.0  23403.5      0.15      4.0      0.0
   8 │     4      3             4.0  17110.5      0.15      4.0      0.0
  ⋮  │   ⋮      ⋮          ⋮            ⋮         ⋮        ⋮        ⋮        ⋮ ⋱
  70 │    22     23             4.0   5000.0      0.15      4.0      0.0       ⋯
  71 │    23     14             4.0   4924.79     0.15      4.0      0.0
  72 │    23     22             4.0   5000.0      0.15      4.0      0.0
  73 │    23     24             2.0   5078.51     0.15      4.0      0.0
  74 │    24     13             4.0   5091.26     0.15      4.0      0.0       ⋯
  75 │    24     21             3.0   4885.36     0.15      4.0      0.0
  76 │    24     23             2.0   5078.51     0.15      4.0      0.0
                                                    1 column and 61 rows omitted
```
…
